FSEP data meetup
…
CD3

## # A tibble: 41 x 17
##    Sample `CD3+/CD4-/CD8a~ `CD3+/CD4-/CD8a~ `CD3+/CD4-/CD8a~
##    <chr>             <dbl>            <dbl>            <dbl>
##  1 Speci~              165               81               56
##  2 Speci~              433               39               64
##  3 Speci~              179              404              117
##  4 Speci~               68               84               55
##  5 Speci~              360                7                6
##  6 Speci~              107              156               73
##  7 Speci~              361              364               71
##  8 Speci~             5231               37               57
##  9 Speci~              109              343              103
## 10 Speci~              338              291              108
## # ... with 31 more rows, and 13 more variables:
## #   `CD3+/CD4-/CD8a+/FoxP3-/CD25-` <dbl>,
## #   `CD3+/CD4+/CD8a+/FoxP3-/CD25+` <dbl>,
## #   `CD3+/CD4+/CD8a+/FoxP3+/CD25+` <dbl>,
## #   `CD3+/CD4+/CD8a+/FoxP3+/CD25-` <dbl>,
## #   `CD3+/CD4+/CD8a+/FoxP3-/CD25-` <dbl>,
## #   `CD3+/CD4+/CD8a-/FoxP3-/CD25+` <dbl>,
## #   `CD3+/CD4+/CD8a-/FoxP3+/CD25+` <dbl>,
## #   `CD3+/CD4+/CD8a-/FoxP3+/CD25-` <dbl>,
…
Not a bad looking dataset needs a little cleaning thought. The metadata is all locked up in one column. Lets free it.

CD3$pignum <- sub('Specimen_([0-9]+) ([A-Za-z]+)_.*','\\1', CD3$Sample)  # some regular expressions to extract metadata from sample names

CD3$tissue <- sub('Specimen_([0-9]+) ([A-Za-z]+)_.*','\\2', CD3$Sample)

CD3$treatment <- ifelse(CD3$pignum %in% c(67:73), 'control', 'RPS')      # adding in treatment groups...

CD3 <- CD3 %>% select(pignum, tissue, treatment, everything(), -Sample)  # ordering the dataframe so metadata is first, also dropping "Sample" column

CD3

## # A tibble: 41 x 19
##    pignum tissue treatment `CD3+/CD4-/CD8a~ `CD3+/CD4-/CD8a~
##    <chr>  <chr>  <chr>                <dbl>            <dbl>
##  1 67     PBMC   control                165               81
##  2 67     cec    control                433               39
##  3 67     ln     control                179              404
##  4 68     PBMC   control                 68               84
##  5 68     cec    control                360                7
##  6 68     ln     control                107              156
##  7 69     PBMC   control                361              364
##  8 69     cec    control               5231               37
##  9 69     ln     control                109              343
## 10 70     PBMC   control                338              291
## # ... with 31 more rows, and 14 more variables:
## #   `CD3+/CD4-/CD8a+/FoxP3+/CD25-` <dbl>,
## #   `CD3+/CD4-/CD8a+/FoxP3-/CD25-` <dbl>,
## #   `CD3+/CD4+/CD8a+/FoxP3-/CD25+` <dbl>,
## #   `CD3+/CD4+/CD8a+/FoxP3+/CD25+` <dbl>,
## #   `CD3+/CD4+/CD8a+/FoxP3+/CD25-` <dbl>,
## #   `CD3+/CD4+/CD8a+/FoxP3-/CD25-` <dbl>,
## #   `CD3+/CD4+/CD8a-/FoxP3-/CD25+` <dbl>,
## #   `CD3+/CD4+/CD8a-/FoxP3+/CD25+` <dbl>,
## #   `CD3+/CD4+/CD8a-/FoxP3+/CD25-` <dbl>,
## #   `CD3+/CD4+/CD8a-/FoxP3-/CD25-` <dbl>,
## #   `CD3+/CD4-/CD8a-/FoxP3-/CD25+` <dbl>,
## #   `CD3+/CD4-/CD8a-/FoxP3+/CD25+` <dbl>,
## #   `CD3+/CD4-/CD8a-/FoxP3+/CD25-` <dbl>,
## #   `CD3+/CD4-/CD8a-/FoxP3-/CD25-` <dbl>

Nice. Now we are ready to move into the long format. To do this we use the function gather(). Dont worry if you have trouble remembering how to use this function, I still look it up almost everytime I use it. Basically gather() uses key, value pairs to combine all the variables you didnt specifically omit into one new column. Usually you omit the metadata.

# convert to long format (), This data would be considered tidy?
CD3 %>% gather(key = 'cell_type', value = 'num_events', -c(1:3))

## # A tibble: 656 x 5
##    pignum tissue treatment cell_type                    num_events
##    <chr>  <chr>  <chr>     <chr>                             <dbl>
##  1 67     PBMC   control   CD3+/CD4-/CD8a+/FoxP3-/CD25+        165
##  2 67     cec    control   CD3+/CD4-/CD8a+/FoxP3-/CD25+        433
##  3 67     ln     control   CD3+/CD4-/CD8a+/FoxP3-/CD25+        179
##  4 68     PBMC   control   CD3+/CD4-/CD8a+/FoxP3-/CD25+         68
##  5 68     cec    control   CD3+/CD4-/CD8a+/FoxP3-/CD25+        360
##  6 68     ln     control   CD3+/CD4-/CD8a+/FoxP3-/CD25+        107
##  7 69     PBMC   control   CD3+/CD4-/CD8a+/FoxP3-/CD25+        361
##  8 69     cec    control   CD3+/CD4-/CD8a+/FoxP3-/CD25+       5231
##  9 69     ln     control   CD3+/CD4-/CD8a+/FoxP3-/CD25+        109
## 10 70     PBMC   control   CD3+/CD4-/CD8a+/FoxP3-/CD25+        338
## # ... with 646 more rows
…
Very interesting, how about all of the t.tests? T.tests not your thing? Well its simple to add in Wilcox tests as well. Now that our data is long, this is all so very easy:

The summarise() verb condenses your dataframe, usually based on groupings established by group_by()

CD3_tests <- CD3.long %>% 
                group_by(tissue, cell_type) %>%
                summarise(wilcox_p=wilcox.test(percent_CD3~treatment)$p.value, 
                          t_p=t.test(percent_CD3~treatment)$p.value)

CD3_tests

## # A tibble: 48 x 4
## # Groups:   tissue [3]
##    tissue cell_type                wilcox_p      t_p
##    <chr>  <chr>                       <dbl>    <dbl>
##  1 cec    CD3+CD4-CD8a-FoxP3-CD25- 0.456    0.461   
##  2 cec    CD3+CD4-CD8a-FoxP3-CD25+ 0.805    0.684   
##  3 cec    CD3+CD4-CD8a-FoxP3+CD25- 0.456    0.241   
##  4 cec    CD3+CD4-CD8a-FoxP3+CD25+ 0.456    0.883   
##  5 cec    CD3+CD4-CD8a+FoxP3-CD25- 0.00117  0.000117
##  6 cec    CD3+CD4-CD8a+FoxP3-CD25+ 0.000583 0.0114  
##  7 cec    CD3+CD4-CD8a+FoxP3+CD25- 0.710    0.700   
##  8 cec    CD3+CD4-CD8a+FoxP3+CD25+ 0.0530   0.129   
##  9 cec    CD3+CD4+CD8a-FoxP3-CD25- 0.000583 0.00110 
## 10 cec    CD3+CD4+CD8a-FoxP3-CD25+ 0.620    0.679   
## # ... with 38 more rows
…
Boxplots not your thing?

How about we calculate some summary statistics and plot those intsead:

CD3_summary <- CD3.long %>% group_by(tissue, treatment, cell_type) %>% 
                  summarise(avg=mean(percent_CD3), 
                    std_dev= sd(percent_CD3), 
                    num_obs= n(), 
                    std_err=std_dev/sqrt(num_obs)) %>% filter(cell_type %in% CD3_sigs$cell_type)

CD3_summary

## # A tibble: 48 x 7
## # Groups:   tissue, treatment [6]
##    tissue treatment cell_type                   avg std_dev num_obs std_err
##    <chr>  <chr>     <chr>                     <dbl>   <dbl>   <int>   <dbl>
##  1 cec    control   CD3+CD4-CD8a-FoxP3-CD2~  0.534   0.199        7  0.0750
##  2 cec    control   CD3+CD4-CD8a-FoxP3+CD2~  0.181   0.121        7  0.0456
##  3 cec    control   CD3+CD4-CD8a-FoxP3+CD2~  0.0677  0.0811       7  0.0307
##  4 cec    control   CD3+CD4-CD8a+FoxP3-CD2~ 58.7     5.91         7  2.23  
##  5 cec    control   CD3+CD4-CD8a+FoxP3-CD2~  6.24    2.91         7  1.10  
##  6 cec    control   CD3+CD4+CD8a-FoxP3-CD2~  9.02    3.23         7  1.22  
##  7 cec    control   CD3+CD4+CD8a-FoxP3+CD2~  0.285   0.189        7  0.0716
##  8 cec    control   CD3+CD4+CD8a-FoxP3+CD2~  0.350   0.172        7  0.0652
##  9 cec    RPS       CD3+CD4-CD8a-FoxP3-CD2~  0.588   0.273        7  0.103 
## 10 cec    RPS       CD3+CD4-CD8a-FoxP3+CD2~  0.328   0.283        7  0.107 
## # ... with 38 more rows
…
It is a pain to enter data in the long format

Its often easier to clean data in the long format (remove weird characters from variable names etc.)

Some tools require data in the wide format ecological statistical techniques often operate on matricies, each species or part of the community is a column

The spread() verb moves data from long to wide.

CD3.wide <- CD3.long %>% mutate(set=paste(tissue, treatment,sep = '_')) %>% 
  spread(key = cell_type, value = percent_CD3)

CD3.wide

## # A tibble: 41 x 20
##    pignum tissue treatment set   `CD3+CD4-CD8a-F~ `CD3+CD4-CD8a-F~
##    <chr>  <chr>  <chr>     <chr>            <dbl>            <dbl>
##  1 67     cec    control   cec_~            14.9             0.683
##  2 67     ln     control   ln_c~            44.5             0.789
##  3 67     PBMC   control   PBMC~            24.5             1.79 
##  4 68     cec    control   cec_~            10.4             0.859
##  5 68     ln     control   ln_c~            14.4             0.578
##  6 68     PBMC   control   PBMC~            29.5             0.832
##  7 69     cec    control   cec_~             3.05            0.348
##  8 69     ln     control   ln_c~            14.9             1.07 
##  9 69     PBMC   control   PBMC~            18.7             1.51 
## 10 70     cec    control   cec_~             4.96            0.322
## # ... with 31 more rows, and 14 more variables:
## #   `CD3+CD4-CD8a-FoxP3+CD25-` <dbl>, `CD3+CD4-CD8a-FoxP3+CD25+` <dbl>,
## #   `CD3+CD4-CD8a+FoxP3-CD25-` <dbl>, `CD3+CD4-CD8a+FoxP3-CD25+` <dbl>,
## #   `CD3+CD4-CD8a+FoxP3+CD25-` <dbl>, `CD3+CD4-CD8a+FoxP3+CD25+` <dbl>,
## #   `CD3+CD4+CD8a-FoxP3-CD25-` <dbl>, `CD3+CD4+CD8a-FoxP3-CD25+` <dbl>,
## #   `CD3+CD4+CD8a-FoxP3+CD25-` <dbl>, `CD3+CD4+CD8a-FoxP3+CD25+` <dbl>,
## #   `CD3+CD4+CD8a+FoxP3-CD25-` <dbl>, `CD3+CD4+CD8a+FoxP3-CD25+` <dbl>,
## #   `CD3+CD4+CD8a+FoxP3+CD25-` <dbl>, `CD3+CD4+CD8a+FoxP3+CD25+` <dbl>
…
